交易所数据爬虫之中金所 - William Fang
…
Warning: 6 parsing failures.
row col   expected     actual                                                           file
  5  -- 15 columns 14 columns 'http://www.cffex.com.cn/sj/hqsj/rtj/201710/17/20171017_1.csv'
 10  -- 15 columns 14 columns 'http://www.cffex.com.cn/sj/hqsj/rtj/201710/17/20171017_1.csv'
 15  -- 15 columns 14 columns 'http://www.cffex.com.cn/sj/hqsj/rtj/201710/17/20171017_1.csv'
 19  -- 15 columns 14 columns 'http://www.cffex.com.cn/sj/hqsj/rtj/201710/17/20171017_1.csv'
 23  -- 15 columns 14 columns 'http://www.cffex.com.cn/sj/hqsj/rtj/201710/17/20171017_1.csv'
... ... .......... .......... ..............................................................
See problems(...) for more details.

print(dt)

# A tibble: 24 x 15
   合约代码 今开盘 最高价 最低价 成交量 成交金额 持仓量 持仓变化 今收盘 今结算 前结算 涨跌1 涨跌2 `隐含波动率(%)` Delta
   <chr>     <dbl>  <dbl>  <dbl>  <dbl>    <dbl>  <dbl>    <dbl>  <dbl>  <dbl>  <dbl> <dbl> <dbl> <chr>           <chr>
 1 IC1710    6600   6653.  6584.  10644 1407964.  13681    -2199  6592.  6604.  6628. -35.8 -23.4 --              --   
 2 IC1711    6568.  6618   6553.   3270  430422.   6064     1692  6561.  6571.  6597. -36.6 -26   --              --   
 3 IC1712    6544   6597.  6523.   1041  136429.   7769      236  6531   6542   6572. -41.2 -30.2 --              --   
 4 IC1803    6489   6525.  6463.    277   35942.   2124       55  6470   6480.  6511. -40.8 -30.4 --              --   
 5 小计        NA     NA     NA   15232 2010756.  29638     -216    NA     NA     NA   NA    NA   <NA>            <NA> 
 6 IF1710    3914   3928.  3909.  10887 1279659.  16859    -3096  3911   3917.  3924  -13    -7.4 --              --   
 7 IF1711    3913   3925   3906    3723  437320.   7226     2224  3906   3913   3922. -15.6  -8.6 --              --   
 8 IF1712    3911   3923.  3904    1293  151760.  12518      170  3906   3910.  3919. -13.2  -8.8 --              --   
 9 IF1803    3918.  3923   3904.    298   34976.   3509       10  3907.  3911   3920. -13.2  -8.8 --              --   
10 小计        NA     NA     NA   16201 1903714.  40112     -692    NA     NA     NA   NA    NA   <NA>            <NA> 
# … with 14 more rows
…
成交持仓排名数据

我们来检查一下数据是不是正确的。

exchURL <- 'http://www.cffex.com.cn/sj/ccpm'
tempURL <- '/201710/17/IF_1.csv'

dataFile <- paste(exchURL, tempURL, sep = '')
dt <- dataFile %>% read_csv(., locale = locale(encoding = "GB18030"))

print(dt)

# A tibble: 46 x 9
   交易日   合约   会员类别   总成交量   比上交易日增减 总持买单量       比上交易日增减_1 总持卖单量 比上一交易日增减
   <chr>    <chr>  <chr>      <chr>      <chr>          <chr>            <chr>            <chr>      <chr>           
 1 20171017 IF1710 期货公司   21774      -1166          16859            -3096            16859      -3096           
 2 20171017 IF1710 非期货公司 0          0              0                0                0          0               
 3 20171017 IF1712 期货公司   2586       -530           12518            170              12518      170             
 4 20171017 IF1712 非期货公司 0          0              0                0                0          0               
 5 交易日   合约   排名       成交量排名 <NA>           <NA>             持买单量排名     <NA>       <NA>            
 6 <NA>     <NA>   <NA>       会员简称   成交量         比上一交易日增减 会员简称         持买单量   比上一交易日增减
 7 20171017 IF1710 1          中信期货   2670           19               中信期货         1704       -444            
 8 20171017 IF1710 2          国泰君安   1269           -100             五矿经易         1595       -73             
 9 20171017 IF1710 3          银河期货   1163           172              国泰君安         1448       -63             
10 20171017 IF1710 4          海通期货   1055           -6               申银万国         721        -197            
# … with 36 more rows
…
